country_event = {
	id = 10282
	title = "CorrectGovType_TITLE"
	desc = "CorrectGovType_DESC"
	trigger = {
		OR = {
			tag = 	CA8
			tag = 	NL8
			tag = 	QC8
			tag = 	US8
			tag = 	CL8
			tag = 	TX8
			tag = 	MX8
			tag = 	YC8
			tag = 	BZ8
			tag = 	GT8
			tag = 	EL8
			tag = 	HD8
			tag = 	NC8
			tag = 	CR8
			tag = 	PA8
			tag = 	BA8
			tag = 	TC8
			tag = 	CB8
			tag = 	JM8
			tag = 	HT8
			tag = 	DR8
			tag = 	PR8
			tag = 	GL8
			tag = 	AB8
			tag = 	GD8
			tag = 	DO8
			tag = 	MT8
			tag = 	LC8
			tag = 	TD8
			tag = 	CC8
			tag = 	CO8
			tag = 	VZ8
			tag = 	EC8
			tag = 	GY8
			tag = 	SR8
			tag = 	GI8
			tag = 	BR8
			tag = 	EU8
			tag = 	VO8
			tag = 	CI8
			tag = 	AG8
			tag = 	UG8
			tag = 	PG8
			tag = 	TH8
			tag = 	CK8
			tag = 	SM8
			tag = 	NG8
			tag = 	BT8
			tag = 	HI8
			tag = 	GN8
			tag = 	IC8
			tag = 	FI8
			tag = 	SE8
			tag = 	NO8
			tag = 	DK8
			tag = 	SC8
			tag = 	IE8
			tag = 	WA8
			tag = 	ES8
			tag = 	GA8
			tag = 	PT8
			tag = 	VS8
			tag = 	CT8
			tag = 	FR8
			tag = 	ML8
			tag = 	SI8
			tag = 	OR8
			tag = 	IT8
			tag = 	CH8
			tag = 	LX8
			tag = 	BG8
			tag = 	ND8
			tag = 	DE8
			tag = 	AT8
			tag = 	SO8
			tag = 	HV8
			tag = 	BO8
			tag = 	MN8
			tag = 	SB8
			tag = 	KS8
			tag = 	MK8
			tag = 	GK8
			tag = 	BU8
			tag = 	RO8
			tag = 	HG8
			tag = 	SK8
			tag = 	PO8
			tag = 	MD8
			tag = 	EE8
			tag = 	LT8
			tag = 	LI8
			tag = 	BY8
			tag = 	UA8
			tag = 	KR8
			tag = 	NR8
			tag = 	RU8
			tag = 	CZ8
			tag = 	TR8
			tag = 	KY8
			tag = 	RK8
			tag = 	HE8
			tag = 	DG8
			tag = 	AZ8
			tag = 	AM8
			tag = 	GE8
			tag = 	IR8
			tag = 	IQ8
			tag = 	SY8
			tag = 	LB8
			tag = 	JD8
			tag = 	IL8
			tag = 	PS8
			tag = 	EG8
			tag = 	SA8
			tag = 	BH8
			tag = 	QT8
			tag = 	AE8
			tag = 	OM8
			tag = 	YE8
			tag = 	LY8
			tag = 	TS8
			tag = 	DZ8
			tag = 	MA8
			tag = 	EH8
			tag = 	SU8
			tag = 	SS8
			tag = 	ER8
			tag = 	ET8
			tag = 	DJ8
			tag = 	SL8
			tag = 	LA8
			tag = 	KN8
			tag = 	UN8
			tag = 	RW8
			tag = 	BW8
			tag = 	TZ8
			tag = 	YL8
			tag = 	MG8
			tag = 	ZO8
			tag = 	WI8
			tag = 	ZB8
			tag = 	ZA8
			tag = 	SF8
			tag = 	SZ8
			tag = 	LS8
			tag = 	NB8
			tag = 	SW8
			tag = 	AN8
			tag = 	KI8
			tag = 	ZZ8
			tag = 	GB8
			tag = 	AO8
			tag = 	EQ8
			tag = 	CM8
			tag = 	CN8
			tag = 	CD8
			tag = 	BF8
			tag = 	NI8
			tag = 	GR8
			tag = 	BN8
			tag = 	TG8
			tag = 	GH8
			tag = 	IV8
			tag = 	BK8
			tag = 	MI8
			tag = 	AA8
			tag = 	LR8
			tag = 	GU8
			tag = 	LO8
			tag = 	BS8
			tag = 	SG8
			tag = 	GM8
			tag = 	MR8
			tag = 	CV8
			tag = 	DI8
			tag = 	LN8
			tag = 	IN8
			tag = 	ID8
			tag = 	HL8
			tag = 	HA8
			tag = 	NE8
			tag = 	KH8
			tag = 	BL8
			tag = 	PK8
			tag = 	AF8
			tag = 	TK8
			tag = 	TJ8
			tag = 	YR8
			tag = 	KZ8
			tag = 	UZ8
			tag = 	EK8
			tag = 	MO8
			tag = 	NK8
			tag = 	KO8
			tag = 	NA8
			tag = 	TW8
			tag = 	N18
			tag = 	A18
			tag = 	K18
			tag = 	S18
			tag = 	K28
			tag = 	M18
			tag = 	TL8
			tag = 	OS8
			tag = 	VT8
			tag = 	KM8
			tag = 	MY8
			tag = 	BI8
			tag = 	PH8
			tag = 	JP8
			tag = 	WP8
			tag = 	PP8
			tag = 	MC8
			tag = 	SH8
			tag = 	UR8
			tag = 	LM8
			tag = 	FJ8
			tag = 	VA8
			tag = 	DN8
			tag = 	AS8
			tag = 	NZ8
			tag = 	RE8
			tag = 	RI8
			tag = 	TB8
			tag = 	EN8
			tag = 	KD8
			tag = 	AR8
			tag = 	KU8
			tag = 	MM8
			tag = 	BB8
			tag = 	YA8
			tag = 	CY8
			tag = 	TM8
			tag = 	AL8
			tag = 	TY8
			tag = 	AK8
			tag = 	OE8
			tag = 	IY8
			tag = 	FG8
			tag = 	S28
			tag = 	Q28
			tag = 	TF8
			tag = 	SP8
			tag = 	TN8
			tag = 	TT8
			tag = 	RN8
			tag = 	YK8
			tag = 	QK8
			tag = 	IK8
			tag = 	TE8
			tag = 	I18
			tag = 	I28
			tag = 	I38
			tag = 	I48
			tag = 	I58
			tag = 	I68
			tag = 	WL8
			tag = 	FL8
		}
		NOT = {
			OR = {
				government = insurgency
				government = failed_insurgency
			}
		}
	}
	mean_time_to_happen = {
		days = 1
	}
	immediate = {
		random_list = {
			50 = { government = insurgency }
			50 = { government = failed_insurgency }
		}
				
	}
	option = {
		name = "EVTOPT_OK"
	}
}
