country_event = {
	id = 10293
	title = "CorrectGovType_TITLE"
	desc = "CorrectGovType_DESC"
	trigger = {
		OR = {
			tag = 	CA9
			tag = 	NL9
			tag = 	QC9
			tag = 	US9
			tag = 	CL9
			tag = 	TX9
			tag = 	MX9
			tag = 	YC9
			tag = 	BZ9
			tag = 	GT9
			tag = 	EL9
			tag = 	HD9
			tag = 	NC9
			tag = 	CR9
			tag = 	PA9
			tag = 	BA9
			tag = 	TC9
			tag = 	CB9
			tag = 	JM9
			tag = 	HT9
			tag = 	DR9
			tag = 	PR9
			tag = 	GL9
			tag = 	AB9
			tag = 	GD9
			tag = 	DO9
			tag = 	MT9
			tag = 	LC9
			tag = 	TD9
			tag = 	CC9
			tag = 	CO9
			tag = 	VZ9
			tag = 	EC9
			tag = 	GY9
			tag = 	SR9
			tag = 	GI9
			tag = 	BR9
			tag = 	EU9
			tag = 	VO9
			tag = 	CI9
			tag = 	AG9
			tag = 	UG9
			tag = 	PG9
			tag = 	TH9
			tag = 	CK9
			tag = 	SM9
			tag = 	NG9
			tag = 	BT9
			tag = 	HI9
			tag = 	GN9
			tag = 	IC9
			tag = 	FI9
			tag = 	SE9
			tag = 	NO9
			tag = 	DK9
			tag = 	SC9
			tag = 	IE9
			tag = 	WA9
			tag = 	ES9
			tag = 	GA9
			tag = 	PT9
			tag = 	VS9
			tag = 	CT9
			tag = 	FR9
			tag = 	ML9
			tag = 	SI9
			tag = 	OR9
			tag = 	IT9
			tag = 	CH9
			tag = 	LX9
			tag = 	BG9
			tag = 	ND9
			tag = 	DE9
			tag = 	AT9
			tag = 	SO9
			tag = 	HV9
			tag = 	BO9
			tag = 	MN9
			tag = 	SB9
			tag = 	KS9
			tag = 	MK9
			tag = 	GK9
			tag = 	BU9
			tag = 	RO9
			tag = 	HG9
			tag = 	SK9
			tag = 	PO9
			tag = 	MD9
			tag = 	EE9
			tag = 	LT9
			tag = 	LI9
			tag = 	BY9
			tag = 	UA9
			tag = 	KR9
			tag = 	NR9
			tag = 	RU9
			tag = 	CZ9
			tag = 	TR9
			tag = 	KY9
			tag = 	RK9
			tag = 	HE9
			tag = 	DG9
			tag = 	AZ9
			tag = 	AM9
			tag = 	GE9
			tag = 	IR9
			tag = 	IQ9
			tag = 	SY9
			tag = 	LB9
			tag = 	JD9
			tag = 	IL9
			tag = 	PS9
			tag = 	EG9
			tag = 	SA9
			tag = 	BH9
			tag = 	QT9
			tag = 	AE9
			tag = 	OM9
			tag = 	YE9
			tag = 	LY9
			tag = 	TS9
			tag = 	DZ9
			tag = 	MA9
			tag = 	EH9
			tag = 	SU9
			tag = 	SS9
			tag = 	ER9
			tag = 	ET9
			tag = 	DJ9
			tag = 	SL9
			tag = 	LA9
			tag = 	KN9
			tag = 	UN9
			tag = 	RW9
			tag = 	BW9
			tag = 	TZ9
			tag = 	YL9
			tag = 	MG9
			tag = 	ZO9
			tag = 	WI9
			tag = 	ZB9
			tag = 	ZA9
			tag = 	SF9
			tag = 	SZ9
			tag = 	LS9
			tag = 	NB9
			tag = 	SW9
			tag = 	AN9
			tag = 	KI9
			tag = 	ZZ9
			tag = 	GB9
			tag = 	AO9
			tag = 	EQ9
			tag = 	CM9
			tag = 	CN9
			tag = 	CD9
			tag = 	BF9
			tag = 	NI9
			tag = 	GR9
			tag = 	BN9
			tag = 	TG9
			tag = 	GH9
			tag = 	IV9
			tag = 	BK9
			tag = 	MI9
			tag = 	AA9
			tag = 	LR9
			tag = 	GU9
			tag = 	LO9
			tag = 	BS9
			tag = 	SG9
			tag = 	GM9
			tag = 	MR9
			tag = 	CV9
			tag = 	DI9
			tag = 	LN9
			tag = 	IN9
			tag = 	ID9
			tag = 	HL9
			tag = 	HA9
			tag = 	NE9
			tag = 	KH9
			tag = 	BL9
			tag = 	PK9
			tag = 	AF9
			tag = 	TK9
			tag = 	TJ9
			tag = 	YR9
			tag = 	KZ9
			tag = 	UZ9
			tag = 	EK9
			tag = 	MO9
			tag = 	NK9
			tag = 	KO9
			tag = 	NA9
			tag = 	TW9
			tag = 	N19
			tag = 	A19
			tag = 	K19
			tag = 	S19
			tag = 	K29
			tag = 	M19
			tag = 	TL9
			tag = 	OS9
			tag = 	VT9
			tag = 	KM9
			tag = 	MY9
			tag = 	BI9
			tag = 	PH9
			tag = 	JP9
			tag = 	WP9
			tag = 	PP9
			tag = 	MC9
			tag = 	SH9
			tag = 	UR9
			tag = 	LM9
			tag = 	FJ9
			tag = 	VA9
			tag = 	DN9
			tag = 	AS9
			tag = 	NZ9
			tag = 	RE9
			tag = 	RI9
			tag = 	TB9
			tag = 	EN9
			tag = 	KD9
			tag = 	AR9
			tag = 	KU9
			tag = 	MM9
			tag = 	BB9
			tag = 	YA9
			tag = 	CY9
			tag = 	TM9
			tag = 	AL9
			tag = 	TY9
			tag = 	AK9
			tag = 	OE9
			tag = 	IY9
			tag = 	FG9
			tag = 	S29
			tag = 	Q29
			tag = 	TF9
			tag = 	SP9
			tag = 	TN9
			tag = 	TT9
			tag = 	RN9
			tag = 	YK9
			tag = 	QK9
			tag = 	IK9
			tag = 	TE9
			tag = 	I19
			tag = 	I29
			tag = 	I39
			tag = 	I49
			tag = 	I59
			tag = 	I69
			tag = 	WL9
			tag = 	FL9
		}
		NOT = {
			OR = {
				government = transitional_government
				government = failed_state
				government = democratic_republic
				government = military_dictatorship
				government = socialist_democracy
				government = socialist_dictatorship
				government = absolute_monarchy
				government = constitutional_monarchy
			}
		}
	}
	mean_time_to_happen = {
		days = 1
	}
	immediate = {
		government = transitional_government
				
	}
	option = {
		name = "EVTOPT_OK"
	}
}
