name = "Breton War of Independence"

# Treaty of Redon
1489.2.1 = {
	add_attacker = FRA
	add_defender = ENG
	add_defender = BRI
}
 
# Marriage of Anne of Brittany and Charles VIII
1491.12.6 = {
	rem_defender = BRI
}

# Maximilian declares war
1492.7.1 = {
	add_defender = HAB
}

# Treaty of Etaples
1492.11.3 = {
	rem_defender = ENG
}

# Peace of Senlis
1493.5.23 = {
	rem_attacker = FRA
	rem_defender = HAB
}
