name = "Crusade of Varna"

1443.1.1 = {
	add_attacker = HUN
	add_attacker = SER
	add_attacker = POL
	add_attacker = LIT
	add_attacker = BOS
	add_attacker = WAL
	add_attacker = TRA
	add_attacker = VEN
	add_attacker = PAP
	add_defender = TUR
}

1444.11.10 = {
	battle = {
		name = "Varna"
		location = 150
		attacker = {
#			leader =	# Wladyslaw III
			infantry = 18000
			cavalry = 2000
			losses = 60	# percent
		}
		defender = {
#			leader =	# Murad II
			infantry = 50000
			cavalry = 10000
			losses = 25	# percent
		}
		result = loss
	}
}

1445.1.1 = {
	rem_attacker = HUN
	rem_attacker = SER
	rem_attacker = POL
	rem_attacker = LIT
	rem_attacker = BOS
	rem_attacker = WAL
	rem_attacker = TRA
	rem_attacker = VEN
	rem_attacker = PAP
	rem_defender = TUR
}
