name = "Fourth Russo-Turkish War"

1787.8.24 = {
	add_attacker = TUR
	add_attacker = WAL
	add_attacker = MOL
	add_defender = RUS
}

# Joseph II declares war on the Ottomans
1788.2.9 = {
	add_defender = HAB
}

# Treaty of Sistova
1791.8.4 = {
	rem_defender = HAB
}

# The Treaty of Jassy
1792.1.9 = {
	rem_attacker = TUR
	rem_attacker = WAL
	rem_attacker = MOL
	rem_defender = RUS
}
