name = "Europa Modernis: TotC"
replace = "common"
replace = "map"
extend = "gfx"
replace = "history"
replace = "localisation"
replace = "missions"
replace = "music"
extend = "interface"
replace = "events"
replace = "missions"
replace = "decisions"
extend = "sound"

path = "mod/SimpleModernDay"