# 1764 - Burgas
culture = bulgaria_culture
#OLDREL religion =
religion = protestant
#religion =  orthodox
discovered_by = HAT
discovered_by = latin
discovered_by = eastern
discovered_by = muslim
discovered_by = indian
discovered_by = chinese
terrain = mountain
capital = "Pleven"
trade_goods = grain
citysize = 	124069
manpower = 	1.2
base_tax = 	3
smd_prepped = 	no
hre = 	no
#dev level = 	Developing
temple = 	yes
workshop = 	no
regimental_camp = 	no
constable = 	no
courthouse = 	no
marketplace = 	yes
customs_house = 	no
fort1 = 	yes
fort2 = 	no
fort3 = 	no
fort4 = 	no
fort5 = 	no
fort6 = 	no
pop_rework = no	

################################################################################
# Anything typed here will be added to all selected province history files
################################################################################
2000.1.1 = { owner = BU9 controller = BU9 add_core = BU9 } 