capital = "Thanjavur"
culture = india_culture
#OLDREL religion =
religion = protestant
#religion =  hinduism
trade_goods = spices
discovered_by = HAT
discovered_by = latin
discovered_by = eastern
discovered_by = muslim
discovered_by = indian
discovered_by = chinese
hre = no
citysize = 104591
manpower = 1
base_tax = 2
smd_prepped = no
hre = no
# dev level = 	Underdeveloped
temple = no
workshop = no
regimental_camp = no
constable = no
courthouse = no
marketplace = no
customs_house = no
fort1 = yes
fort2 = no
fort3 = no
fort4 = no
fort5 = no
fort6 = no
################################################################################
# Anything typed here will be added to all selected province history files
################################################################################
2000.1.1 = { owner = IN9 controller = IN9 add_core = IN9 } 