# 458 - Ferghana
culture = uzbekistan_culture
#OLDREL religion =
religion = protestant
#religion =  sunni
discovered_by = HAT
discovered_by = latin
discovered_by = eastern
discovered_by = muslim
discovered_by = indian
discovered_by = chinese
capital = "Tashkent"
terrain = desert
trade_goods = wool
citysize = 599900
manpower = 6
base_tax = 6
smd_prepped = no
hre = no
# dev level = 	Developing
temple = yes
workshop = no
regimental_camp = yes
constable = yes
courthouse = yes
marketplace = yes
customs_house = no
fort1 = yes
fort2 = yes
fort3 = no
fort4 = no
fort5 = no
fort6 = no
################################################################################
# Anything typed here will be added to all selected province history files
################################################################################
2000.1.1 = { owner = UZ9 controller = UZ9 add_core = UZ9 } 