# 470 - Baybaktu
culture = kazakhstan_culture
#OLDREL religion =
religion = protestant
#religion =  orthodox
discovered_by = HAT
discovered_by = latin
discovered_by = eastern
discovered_by = muslim
discovered_by = indian
discovered_by = chinese
terrain = steppe
capital = "Orel"
trade_goods = wool
citysize = 66000
manpower = 0.7
base_tax = 2
smd_prepped = no
hre = no
# dev level = 	Developing
temple = no
workshop = no
regimental_camp = no
constable = no
courthouse = no
marketplace = no
customs_house = no
fort1 = yes
fort2 = no
fort3 = no
fort4 = no
fort5 = no
fort6 = no
################################################################################
# Anything typed here will be added to all selected province history files
################################################################################
2000.1.1 = { owner = KZ9 controller = KZ9 add_core = KZ9 } 