# 751 - Ceara
culture = brazil_culture
#OLDREL religion =
religion = protestant
#religion =  catholic
discovered_by = HAT
discovered_by = latin
discovered_by = eastern
discovered_by = muslim
discovered_by = indian
discovered_by = chinese
terrain = mountain
capital = "Teresina"
trade_goods = sugar
citysize = 245300
manpower = 2.5
base_tax = 4
smd_prepped = no
hre = no
# dev level = 	Developing
temple = yes
workshop = no
regimental_camp = no
constable = no
courthouse = no
marketplace = no
customs_house = no
fort1 = yes
fort2 = yes
fort3 = no
fort4 = no
fort5 = no
fort6 = no
################################################################################
# Anything typed here will be added to all selected province history files
################################################################################
2000.1.1 = { owner = BR9 controller = BR9 add_core = BR9 } 