# 771 - Patos
culture = brazil_culture
#OLDREL religion =
religion = reactionary_r
#religion =  catholic
discovered_by = HAT
discovered_by = latin
discovered_by = eastern
discovered_by = muslim
discovered_by = indian
discovered_by = chinese
capital = "Porto Alegre"
terrain = mountain
trade_goods = grain
citysize = 881140
manpower = 8.8
base_tax = 7
smd_prepped = no
hre = no
# dev level = 	Developing
temple = yes
workshop = yes
regimental_camp = yes
constable = yes
courthouse = yes
marketplace = yes
customs_house = yes
fort1 = yes
fort2 = yes
fort3 = yes
fort4 = no
fort5 = no
fort6 = no
################################################################################
# Anything typed here will be added to all selected province history files
################################################################################
2000.1.1 = { owner = BR9 controller = BR9 add_core = BR9 } 