technology = { id = 0   average_year = 1980 sprite_level = 1 void_supply_limit = 0.1  	land_morale = 	0.2    	infantry_fire = 	0.1	cavalry_fire = 	0.1	artillery_fire = 	0.1	infantry_shock = 	0.1	cavalry_shock = 	0.1	artillery_shock = 	0.1    		enable = flying_battery enable = napoleonic_lancers	enable = napoleonic_square	}
technology = { id = 1   average_year = 1985 sprite_level = 2 void_supply_limit = 0.3  	land_morale = 	0.3    	infantry_fire = 	0.2	cavalry_fire = 	0.2	artillery_fire = 	0.2	infantry_shock = 	0.2 cavalry_shock = 	0.8	artillery_shock = 	0.044   regimental_camp = yes weapons = yes	}
technology = { id = 2   average_year = 1990 sprite_level = 3 void_supply_limit = 0.5  	land_morale = 	0.4    	infantry_fire = 	0.3	cavalry_fire = 	0.3	artillery_fire = 	0.3	infantry_shock = 	0.3	cavalry_shock = 	0.2	artillery_shock = 	0.2    		}
technology = { id = 3   average_year = 1995 sprite_level = 4 void_supply_limit = 0.7  	land_morale = 	0.5    	infantry_fire = 	0.4	cavalry_fire = 	0.4	artillery_fire = 	0.4	infantry_shock = 	0.4	cavalry_shock = 	0.3	artillery_shock = 	0.3    war_college = yes 				 fort1 = yes fort2 = yes fort3 = yes 	}
technology = { id = 4 average_year = 2000 void_supply_limit = 3.6 land_morale = 4.4 infantry_fire = 3.2 cavalry_fire = 1 artillery_fire = 8.7 infantry_shock = 2.4 cavalry_shock = 4.5 artillery_shock = 1.2}
technology = { id = 5 average_year = 2005 void_supply_limit = 3.7 land_morale = 4.5 infantry_fire = 3.3 cavalry_fire = 1.1 artillery_fire = 8.8 infantry_shock = 2.5 cavalry_shock = 4.6 artillery_shock = 1.3}
technology = { id = 6 average_year = 2010 void_supply_limit = 3.8 land_morale = 4.6 infantry_fire = 3.4 cavalry_fire = 1.2 artillery_fire = 8.9 infantry_shock = 2.6 cavalry_shock = 4.7 artillery_shock = 1.4}
technology = { id = 7 average_year = 2015 void_supply_limit = 3.9 land_morale = 4.7 infantry_fire = 3.5 cavalry_fire = 1.3 artillery_fire = 9 infantry_shock = 2.7 cavalry_shock = 4.8 artillery_shock = 1.5}
technology = { id = 8 average_year = 2020 void_supply_limit = 4 land_morale = 4.8 infantry_fire = 3.6 cavalry_fire = 1.4 artillery_fire = 9.1 infantry_shock = 2.8 cavalry_shock = 4.9 artillery_shock = 1.6}
technology = { id = 9 average_year = 2025 void_supply_limit = 4.1 land_morale = 4.9 infantry_fire = 3.7 cavalry_fire = 1.5 artillery_fire = 9.2 infantry_shock = 2.9 cavalry_shock = 5 artillery_shock = 1.7}
technology = { id = 10 average_year = 2030 void_supply_limit = 4.2 land_morale = 5 infantry_fire = 3.8 cavalry_fire = 1.6 artillery_fire = 9.3 infantry_shock = 3 cavalry_shock = 5.1 artillery_shock = 1.8}
technology = { id = 11 average_year = 2035 void_supply_limit = 4.3 land_morale = 5.1 infantry_fire = 3.9 cavalry_fire = 1.7 artillery_fire = 9.4 infantry_shock = 3.1 cavalry_shock = 5.2 artillery_shock = 1.9}
technology = { id = 12 average_year = 2040 void_supply_limit = 4.4 land_morale = 5.2 infantry_fire = 4 cavalry_fire = 1.8 artillery_fire = 9.5 infantry_shock = 3.2 cavalry_shock = 5.3 artillery_shock = 2}
technology = { id = 13 average_year = 2045 void_supply_limit = 4.5 land_morale = 5.3 infantry_fire = 4.1 cavalry_fire = 1.9 artillery_fire = 9.6 infantry_shock = 3.3 cavalry_shock = 5.4 artillery_shock = 2.1}
technology = { id = 14 average_year = 2050 void_supply_limit = 4.6 land_morale = 5.4 infantry_fire = 4.2 cavalry_fire = 2 artillery_fire = 9.7 infantry_shock = 3.4 cavalry_shock = 5.5 artillery_shock = 2.2}
technology = { id = 15 average_year = 2055 void_supply_limit = 4.7 land_morale = 5.5 infantry_fire = 4.3 cavalry_fire = 2.1 artillery_fire = 9.8 infantry_shock = 3.5 cavalry_shock = 5.6 artillery_shock = 2.3}
technology = { id = 16 average_year = 2060 void_supply_limit = 4.8 land_morale = 5.6 infantry_fire = 4.4 cavalry_fire = 2.2 artillery_fire = 9.9 infantry_shock = 3.6 cavalry_shock = 5.7 artillery_shock = 2.4}
technology = { id = 17 average_year = 2065 void_supply_limit = 4.9 land_morale = 5.7 infantry_fire = 4.5 cavalry_fire = 2.3 artillery_fire = 9.9 infantry_shock = 3.7 cavalry_shock = 5.8 artillery_shock = 2.5}
technology = { id = 18 average_year = 2070 void_supply_limit = 5 land_morale = 5.8 infantry_fire = 4.6 cavalry_fire = 2.4 artillery_fire = 9.9 infantry_shock = 3.8 cavalry_shock = 5.9 artillery_shock = 2.6}
technology = { id = 19 average_year = 2075 void_supply_limit = 5.1 land_morale = 5.9 infantry_fire = 4.7 cavalry_fire = 2.5 artillery_fire = 9.9 infantry_shock = 3.9 cavalry_shock = 6 artillery_shock = 2.7}
technology = { id = 20 average_year = 2080 void_supply_limit = 5.2 land_morale = 6 infantry_fire = 4.8 cavalry_fire = 2.6 artillery_fire = 9.9 infantry_shock = 4 cavalry_shock = 6.1 artillery_shock = 2.8}
technology = { id = 21 average_year = 2085 void_supply_limit = 5.3 land_morale = 6.1 infantry_fire = 4.9 cavalry_fire = 2.7 artillery_fire = 9.9 infantry_shock = 4.1 cavalry_shock = 6.2 artillery_shock = 2.9}
technology = { id = 22 average_year = 2090 void_supply_limit = 5.4 land_morale = 6.2 infantry_fire = 5 cavalry_fire = 2.8 artillery_fire = 9.9 infantry_shock = 4.2 cavalry_shock = 6.3 artillery_shock = 3}
technology = { id = 23 average_year = 2095 void_supply_limit = 5.5 land_morale = 6.3 infantry_fire = 5.1 cavalry_fire = 2.9 artillery_fire = 9.9 infantry_shock = 4.3 cavalry_shock = 6.4 artillery_shock = 3.1}
technology = { id = 24 average_year = 2100 void_supply_limit = 5.6 land_morale = 6.4 infantry_fire = 5.2 cavalry_fire = 3 artillery_fire = 9.9 infantry_shock = 4.4 cavalry_shock = 6.5 artillery_shock = 3.2}
technology = { id = 25 average_year = 2105 void_supply_limit = 5.7 land_morale = 6.5 infantry_fire = 5.3 cavalry_fire = 3.1 artillery_fire = 9.9 infantry_shock = 4.5 cavalry_shock = 6.6 artillery_shock = 3.3}
technology = { id = 26 average_year = 2110 void_supply_limit = 5.8 land_morale = 6.6 infantry_fire = 5.4 cavalry_fire = 3.2 artillery_fire = 9.9 infantry_shock = 4.6 cavalry_shock = 6.7 artillery_shock = 3.4}
technology = { id = 27 average_year = 2115 void_supply_limit = 5.9 land_morale = 6.7 infantry_fire = 5.5 cavalry_fire = 3.3 artillery_fire = 9.9 infantry_shock = 4.7 cavalry_shock = 6.8 artillery_shock = 3.5}
technology = { id = 28 average_year = 2120 void_supply_limit = 6 land_morale = 6.8 infantry_fire = 5.6 cavalry_fire = 3.4 artillery_fire = 9.9 infantry_shock = 4.8 cavalry_shock = 6.9 artillery_shock = 3.6}
technology = { id = 29 average_year = 2125 void_supply_limit = 6.1 land_morale = 6.9 infantry_fire = 5.7 cavalry_fire = 3.5 artillery_fire = 9.9 infantry_shock = 4.9 cavalry_shock = 7 artillery_shock = 3.7}
technology = { id = 30 average_year = 2130 void_supply_limit = 6.2 land_morale = 7 infantry_fire = 5.8 cavalry_fire = 3.6 artillery_fire = 9.9 infantry_shock = 5 cavalry_shock = 7.1 artillery_shock = 3.8}
technology = { id = 31 average_year = 2135 void_supply_limit = 6.3 land_morale = 7.1 infantry_fire = 5.9 cavalry_fire = 3.7 artillery_fire = 9.9 infantry_shock = 5.1 cavalry_shock = 7.2 artillery_shock = 3.9}
technology = { id = 32 average_year = 2140 void_supply_limit = 6.4 land_morale = 7.2 infantry_fire = 6 cavalry_fire = 3.8 artillery_fire = 9.9 infantry_shock = 5.2 cavalry_shock = 7.3 artillery_shock = 4}
technology = { id = 33 average_year = 2145 void_supply_limit = 6.5 land_morale = 7.3 infantry_fire = 6.1 cavalry_fire = 3.9 artillery_fire = 9.9 infantry_shock = 5.3 cavalry_shock = 7.4 artillery_shock = 4.1}
technology = { id = 34 average_year = 2150 void_supply_limit = 6.6 land_morale = 7.4 infantry_fire = 6.2 cavalry_fire = 4 artillery_fire = 9.9 infantry_shock = 5.4 cavalry_shock = 7.5 artillery_shock = 4.2}
technology = { id = 35 average_year = 2155 void_supply_limit = 6.7 land_morale = 7.5 infantry_fire = 6.3 cavalry_fire = 4.1 artillery_fire = 9.9 infantry_shock = 5.5 cavalry_shock = 7.6 artillery_shock = 4.3}
technology = { id = 36 average_year = 2160 void_supply_limit = 6.8 land_morale = 7.6 infantry_fire = 6.4 cavalry_fire = 4.2 artillery_fire = 9.9 infantry_shock = 5.6 cavalry_shock = 7.7 artillery_shock = 4.4}
technology = { id = 37 average_year = 2165 void_supply_limit = 6.9 land_morale = 7.7 infantry_fire = 6.5 cavalry_fire = 4.3 artillery_fire = 9.9 infantry_shock = 5.7 cavalry_shock = 7.8 artillery_shock = 4.5}
technology = { id = 38 average_year = 2170 void_supply_limit = 7 land_morale = 7.8 infantry_fire = 6.6 cavalry_fire = 4.4 artillery_fire = 9.9 infantry_shock = 5.8 cavalry_shock = 7.9 artillery_shock = 4.6}
technology = { id = 39 average_year = 2175 void_supply_limit = 7.1 land_morale = 7.9 infantry_fire = 6.7 cavalry_fire = 4.5 artillery_fire = 9.9 infantry_shock = 5.9 cavalry_shock = 8 artillery_shock = 4.7}
technology = { id = 40 average_year = 2180 void_supply_limit = 7.2 land_morale = 8 infantry_fire = 6.8 cavalry_fire = 4.6 artillery_fire = 9.9 infantry_shock = 6 cavalry_shock = 8.1 artillery_shock = 4.8}
technology = { id = 41 average_year = 2185 void_supply_limit = 7.3 land_morale = 8.1 infantry_fire = 6.9 cavalry_fire = 4.7 artillery_fire = 9.9 infantry_shock = 6.1 cavalry_shock = 8.2 artillery_shock = 4.9}
technology = { id = 42 average_year = 2190 void_supply_limit = 7.4 land_morale = 8.2 infantry_fire = 7 cavalry_fire = 4.8 artillery_fire = 9.9 infantry_shock = 6.2 cavalry_shock = 8.3 artillery_shock = 5}
technology = { id = 43 average_year = 2195 void_supply_limit = 7.5 land_morale = 8.3 infantry_fire = 7.1 cavalry_fire = 4.9 artillery_fire = 9.9 infantry_shock = 6.3 cavalry_shock = 8.4 artillery_shock = 5.1}
technology = { id = 44 average_year = 2200 void_supply_limit = 7.6 land_morale = 8.4 infantry_fire = 7.2 cavalry_fire = 5 artillery_fire = 9.9 infantry_shock = 6.4 cavalry_shock = 8.5 artillery_shock = 5.2}
technology = { id = 45 average_year = 2205 void_supply_limit = 7.7 land_morale = 8.5 infantry_fire = 7.3 cavalry_fire = 5.1 artillery_fire = 9.9 infantry_shock = 6.5 cavalry_shock = 8.6 artillery_shock = 5.3}
technology = { id = 46 average_year = 2210 void_supply_limit = 7.8 land_morale = 8.6 infantry_fire = 7.4 cavalry_fire = 5.2 artillery_fire = 9.9 infantry_shock = 6.6 cavalry_shock = 8.7 artillery_shock = 5.4}
technology = { id = 47 average_year = 2215 void_supply_limit = 7.9 land_morale = 8.7 infantry_fire = 7.5 cavalry_fire = 5.3 artillery_fire = 9.9 infantry_shock = 6.7 cavalry_shock = 8.8 artillery_shock = 5.5}
technology = { id = 48 average_year = 2220 void_supply_limit = 8 land_morale = 8.8 infantry_fire = 7.6 cavalry_fire = 5.4 artillery_fire = 9.9 infantry_shock = 6.8 cavalry_shock = 8.9 artillery_shock = 5.6}
technology = { id = 49 average_year = 2225 void_supply_limit = 8.1 land_morale = 8.9 infantry_fire = 7.7 cavalry_fire = 5.5 artillery_fire = 9.9 infantry_shock = 6.9 cavalry_shock = 9 artillery_shock = 5.7}
technology = { id = 50 average_year = 2230 void_supply_limit = 8.2 land_morale = 9 infantry_fire = 7.8 cavalry_fire = 5.6 artillery_fire = 9.9 infantry_shock = 7 cavalry_shock = 9.1 artillery_shock = 5.8}
technology = { id = 51 average_year = 2235 void_supply_limit = 8.3 land_morale = 9.1 infantry_fire = 7.9 cavalry_fire = 5.7 artillery_fire = 9.9 infantry_shock = 7.1 cavalry_shock = 9.2 artillery_shock = 5.9}
technology = { id = 52 average_year = 2240 void_supply_limit = 8.4 land_morale = 9.2 infantry_fire = 8 cavalry_fire = 5.8 artillery_fire = 9.9 infantry_shock = 7.2 cavalry_shock = 9.3 artillery_shock = 6}
technology = { id = 53 average_year = 2245 void_supply_limit = 8.5 land_morale = 9.3 infantry_fire = 8.1 cavalry_fire = 5.9 artillery_fire = 9.9 infantry_shock = 7.3 cavalry_shock = 9.4 artillery_shock = 6.1}
technology = { id = 54 average_year = 2250 void_supply_limit = 8.6 land_morale = 9.4 infantry_fire = 8.2 cavalry_fire = 6 artillery_fire = 9.9 infantry_shock = 7.4 cavalry_shock = 9.5 artillery_shock = 6.2}
technology = { id = 55 average_year = 2255 void_supply_limit = 8.7 land_morale = 9.5 infantry_fire = 8.3 cavalry_fire = 6.1 artillery_fire = 9.9 infantry_shock = 7.5 cavalry_shock = 9.6 artillery_shock = 6.3}
technology = { id = 56 average_year = 2260 void_supply_limit = 8.8 land_morale = 9.6 infantry_fire = 8.4 cavalry_fire = 6.2 artillery_fire = 9.9 infantry_shock = 7.6 cavalry_shock = 9.7 artillery_shock = 6.4}
technology = { id = 57 average_year = 2265 void_supply_limit = 8.9 land_morale = 9.7 infantry_fire = 8.5 cavalry_fire = 6.3 artillery_fire = 9.9 infantry_shock = 7.7 cavalry_shock = 9.8 artillery_shock = 6.5}
technology = { id = 58 average_year = 2270 void_supply_limit = 9 land_morale = 9.8 infantry_fire = 8.6 cavalry_fire = 6.4 artillery_fire = 9.9 infantry_shock = 7.8 cavalry_shock = 9.9 artillery_shock = 6.6}
technology = { id = 59 average_year = 2275 void_supply_limit = 9.1 land_morale = 9.9 infantry_fire = 8.7 cavalry_fire = 6.5 artillery_fire = 9.9 infantry_shock = 7.9 cavalry_shock = 9.9 artillery_shock = 6.7}
technology = { id = 60 average_year = 2280 void_supply_limit = 9.2 land_morale = 9.9 infantry_fire = 8.8 cavalry_fire = 6.6 artillery_fire = 9.9 infantry_shock = 8 cavalry_shock = 9.9 artillery_shock = 6.8}
technology = { id = 61 average_year = 2285 void_supply_limit = 9.3 land_morale = 9.9 infantry_fire = 8.9 cavalry_fire = 6.7 artillery_fire = 9.9 infantry_shock = 8.1 cavalry_shock = 9.9 artillery_shock = 6.9}
technology = { id = 62 average_year = 2290 void_supply_limit = 9.4 land_morale = 9.9 infantry_fire = 9 cavalry_fire = 6.8 artillery_fire = 9.9 infantry_shock = 8.2 cavalry_shock = 9.9 artillery_shock = 7}
technology = { id = 63 average_year = 2295 void_supply_limit = 9.5 land_morale = 9.9 infantry_fire = 9.1 cavalry_fire = 6.9 artillery_fire = 9.9 infantry_shock = 8.3 cavalry_shock = 9.9 artillery_shock = 7.1}
technology = { id = 64 average_year = 2300 void_supply_limit = 9.6 land_morale = 9.9 infantry_fire = 9.2 cavalry_fire = 7 artillery_fire = 9.9 infantry_shock = 8.4 cavalry_shock = 9.9 artillery_shock = 7.2}
technology = { id = 65 average_year = 2305 void_supply_limit = 9.7 land_morale = 9.9 infantry_fire = 9.3 cavalry_fire = 7.1 artillery_fire = 9.9 infantry_shock = 8.5 cavalry_shock = 9.9 artillery_shock = 7.3}
technology = { id = 66 average_year = 2310 void_supply_limit = 9.8 land_morale = 9.9 infantry_fire = 9.4 cavalry_fire = 7.2 artillery_fire = 9.9 infantry_shock = 8.6 cavalry_shock = 9.9 artillery_shock = 7.4}
technology = { id = 67 average_year = 2315 void_supply_limit = 9.9 land_morale = 9.9 infantry_fire = 9.5 cavalry_fire = 7.3 artillery_fire = 9.9 infantry_shock = 8.7 cavalry_shock = 9.9 artillery_shock = 7.5}
technology = { id = 68 average_year = 2320 void_supply_limit = 9.9 land_morale = 9.9 infantry_fire = 9.6 cavalry_fire = 7.4 artillery_fire = 9.9 infantry_shock = 8.8 cavalry_shock = 9.9 artillery_shock = 7.6}
technology = { id = 69 average_year = 2325 void_supply_limit = 9.9 land_morale = 9.9 infantry_fire = 9.7 cavalry_fire = 7.5 artillery_fire = 9.9 infantry_shock = 8.9 cavalry_shock = 9.9 artillery_shock = 7.7}
technology = { id = 70 average_year = 2330 void_supply_limit = 9.9 land_morale = 9.9 infantry_fire = 9.8 cavalry_fire = 7.6 artillery_fire = 9.9 infantry_shock = 9 cavalry_shock = 9.9 artillery_shock = 7.8}
technology = { id = 71 average_year = 2335 void_supply_limit = 9.9 land_morale = 9.9 infantry_fire = 9.9 cavalry_fire = 7.7 artillery_fire = 9.9 infantry_shock = 9.1 cavalry_shock = 9.9 artillery_shock = 7.9}
technology = { id = 72 average_year = 2340 void_supply_limit = 9.9 land_morale = 9.9 infantry_fire = 9.9 cavalry_fire = 7.8 artillery_fire = 9.9 infantry_shock = 9.2 cavalry_shock = 9.9 artillery_shock = 8 
  ###enabling units here
enable = tofongchis_musketeer	enable = swedish_caroline 	enable = topchis_artillery	enable = indian_elephant	enable = asian_charge_cavalry enable = asian_mass_infantry	 enable = south_american_spearmen		enable = native_indian_archer		enable = native_clubmen		enable = african_spearmen enable = han_banner		enable = manchu_banner enable = swedish_galoop		enable = south_american_gunpowder_warfare		enable = aztec_gunpowder_warfare		enable = maya_gunpowder_warfare	enable = zapotec_gunpowder_warfare	enable = bantu_gunpowder_warfare	enable = niger_kongolese_gunpowder_warfare	enable = adal_gunpowder_warfare		enable = ethiopian_gunpowder_warfare	enable = huron_arquebusier	 enable = creek_arquebusier	enable = indian_shock_cavalry	enable = rajput_musketeer enable = french_caracolle   enable = germanized_pike	enable = south_american_warfare		enable = aztec_tribal_warfare	enable = maya_tribal_warfare	enable = zapotec_tribal_warfare		enable = songhai_tribal_warfare		enable = niger_kongolese_tribal_warfare		enable = bantu_tribal_warfare	enable = mali_tribal_warfare	enable = african_clubmen enable = maya_guerilla_warfare	enable = american_western_franchise_warfare	enable = african_western_franchise_warfare enable = polish_tercio	enable = asian_musketeer	enable = reformed_mughal_mansabdar	enable = reformed_mughal_musketeer	enable = south_indian_musketeer		enable = swivel_cannon enable = austrian_tercio   enable = swedish_gustavian 	enable = irish_charge	enable = ottoman_sekban		enable = niger_kongolese_guerilla_warfare	enable = adal_guerilla_warfare		enable = ethiopian_guerilla_warfare	enable = apache_guerilla  enable = russian_green_coat	enable = muslim_mass_infantry		enable = indian_archers enable = muscovite_musketeer	enable = polish_musketeer enable = japanese_archer enable = persian_footsoldier	enable = east_asian_spearmen	enable = mongolian_bow	enable = indian_arquebusier enable = east_mongolian_steppe  enable = persian_shamshir	enable = qizilbash_cavalry	enable = small_cast_iron_bombard enable = peruvian_guerilla_warfare	enable = mexican_guerilla_warfare enable = asian_arquebusier	enable = anglofrench_line	enable = scottish_highlander	enable = commanche_swarm	enable = mamluk_musket_charge	 enable = maharathan_guerilla_warfare	enable = maharathan_cavalry	enable = coehorn_mortar		enable = polish_winged_hussar	enable = muscovite_cossack enable = chinese_footsoldier		enable = japanese_footsoldier		enable = chinese_steppe		enable = japanese_samurai enable = large_cast_bronze_mortar enable = houfnice enable = gaelic_galloglaigh	enable = eastern_militia	enable = french_carabinier 	enable = prussian_uhlan 	enable = british_hussar		enable = sikh_rifle	enable = indian_rifle	enable = reformed_manchu_rifle	  enable = french_cuirassier	enable = persian_rifle		enable = durrani_dragoon    enable = tipu_sultan_rocket enable = ali_bey_reformed_infantry	enable = eastern_skirmisher	enable = eastern_uhlan	enable = eastern_carabinier enable = westernized_south_american	enable = westernized_aztec	enable = westernized_mayan	enable = westernized_zapotec		enable = muslim_dragoon	 enable = muscovite_soldaty		enable = ottoman_reformed_spahi enable = polish_hussar	enable = muscovite_caracolle	enable = zaporoghian_cossack	enable = leather_cannon enable = inca_mountain_warfare	enable = aztec_hill_warfare	enable = maya_forest_warfare	enable = zapotec_plains_warfare		enable = bantu_plains_warfare	enable = niger_kongolese_forest_warfare		enable = african_hill_warfare	enable = ethiopian_mountain_warfare	enable = algonkin_tomahawk_charge	enable = native_indian_horsemen		enable = culverin	enable = chambered_demi_cannon	enable = pedrero enable = mughal_musketeer	enable = mughal_mansabdar enable = spanish_tercio	enable = dutch_maurician	enable = gaelic_free_shooter	enable = large_cast_iron_bombard  enable = western_medieval_knights enable = eastern_knights	enable = ottoman_musellem	enable = halberd_infantry	enable = chevauchee	enable = bardiche_infantry	enable = druzhina_cavalry	enable = muslim_cavalry_archers	enable = western_medieval_infantry enable = eastern_medieval_infantry enable = ottoman_yaya enable = chinese_longspear	enable = westernized_bantu	enable = westernized_niger_kongolese	enable = westernized_adal	enable = westernized_ethiopian		enable = sioux_dragoon	enable = iroquis_rifle_scout enable = russian_cuirassier	enable = pueblo_ambush	enable = native_indian_tribal_warfare enable = italian_condotta 		enable = swiss_landsknechten		enable = gaelic_mercenary	enable = ottoman_janissary	enable = mongol_steppe	enable = hungarian_hussar	enable = ottoman_spahi	enable = durrani_swivel		enable = durrani_rifled_musketeer	enable = sikh_hit_and_run	enable = royal_mortar enable = bhonsle_infantry	enable = reformed_asian_musketeer	enable = reformed_asian_cavalry	 enable = swedish_arme_blanche	enable = french_dragoon		enable = austrian_hussar	enable = ottoman_reformed_janissary	enable = russian_petrine	enable = saxon_infantry		enable = ottoman_toprakli_hit_and_run	enable = native_indian_mountain_warfare	 enable = zulu_chest_and_horns	enable = chinese_dragoon enable = austrian_grenzer enable = russian_cossack enable = mongol_bow	enable = shaybani	enable = mamluk_duel enable = slavic_stradioti	enable = ottoman_timariot enable = ottoman_azab	enable = ottoman_nizami_cedid		enable = ottoman_toprakli_dragoon enable = austrian_white_coat	enable = afsharid_reformed	enable = afsharid_reformed_infantry enable = french_bluecoat	enable = ottoman_new_model	enable = ottoman_lancer	    enable = mixed_order_infantry	enable = open_order_cavalry  enable = russian_mass enable = french_impulse		enable = prussian_drill		enable = austrian_jaeger   enable = british_square enable = british_redcoat	enable = prussian_frederickian  enable = russian_lancer		enable = tartar_cossack enable = mongol_swarm enable = western_men_at_arms	enable = mamluk_archer	enable = mamluk_cavalry_charge	enable = indian_footsoldier	enable = rajput_hill_fighters	enable = eastern_bow	enable = persian_cavalry_charge	 }
