country_event = {
	id = 9997
	title = "STARTER_TITLE"
	desc = "DESC"
	#major = yes
	is_triggered_only = yes
	immediate = {
	}
	option = {
		name = "EVTOPT_OK"
		## set COUNTRY FLAGS (should be persistant)
		any_country = {
			limit = {
				OR = {
					tag = WP9	tag = PC9	tag = IK9	tag = SL9	tag = Q29	tag = SS9	tag = YL9	tag = SB9	tag = BS9	tag = ML9	tag = CO9
					tag = PP9	tag = RF9	tag = QM9	tag = GR9	tag = JP9	tag = RW9	tag = SW9	tag = MK9	tag = NL9	tag = SI9	tag = EC9
					tag = KY9	tag = KB9	tag = PL9	tag = AA9	tag = KS9	tag = BW9	tag = MC9	tag = GK9	tag = QC9	tag = OR9	tag = GI9
					tag = HA9	tag = BD9	tag = CP9	tag = MR9	tag = TR9	tag = ZB9	tag = UR9	tag = BU9	tag = FR9	tag = IT9	tag = BR9
					tag = MO9	tag = MZ9	tag = YM9	tag = KH9	tag = JD9	tag = LO9	tag = LM9	tag = RO9	tag = LX9	tag = HV9	tag = EU9
					tag = TL9	tag = KT9	tag = VI9	tag = PK9	tag = BH9	tag = GY9	tag = VA9	tag = MD9	tag = BG9	tag = SK9	tag = CI9
					tag = OS9	tag = NN9	tag = NT9	tag = EK9	tag = QT9	tag = SR9	tag = BB9	tag = BY9	tag = AT9	tag = AO9	tag = AG9
					tag = VT9	tag = TI9	tag = S39	tag = A19	tag = OM9	tag = SM9	tag = UN9	tag = UA9	tag = SO9	tag = EQ9	tag = UG9
					tag = TB9	tag = SD9	tag = RL9	tag = KD9	tag = TS9	tag = NG9	tag = WI9	tag = KR9	tag = PO9	tag = CV9	tag = PG9
					tag = LN9	tag = MH9	tag = NS9	tag = IY9	tag = MA9	tag = HG9	tag = SZ9	tag = RU9	tag = CZ9	tag = PH9	tag = TH9
					tag = N19	tag = WT9	tag = VC9	tag = S29	tag = DJ9	tag = TZ9	tag = LS9	tag = RK9	tag = WL9	tag = DN9	tag = BT9
					tag = K19	tag = ZM9	tag = RB9	tag = YK9	tag = SG9	tag = ZA9	tag = BF9	tag = AM9	tag = HT9	tag = RE9	tag = IE9
					tag = S19	tag = AW9	tag = B19	tag = SA9	tag = GM9	tag = SF9	tag = NI9	tag = GE9	tag = LB9	tag = TM9	tag = ES9
					tag = K29	tag = CS9	tag = AD9	tag = AE9	tag = DI9	tag = NB9	tag = CA9	tag = IL9	tag = ZO9	tag = RN9	tag = GA9
					tag = M19	tag = DF9	tag = FO9	tag = MY9	tag = ID9	tag = SH9	tag = CL9	tag = CY9	tag = KI9	tag = YC9	tag = PT9
					tag = KM9	tag = Y19	tag = KL9	tag = IQ9	tag = TK9	tag = FJ9	tag = HI9	tag = AK9	tag = CN9	tag = GT9	tag = VS9
					tag = MM9	tag = IB9	tag = EI9	tag = PS9	tag = TJ9	tag = TF9	tag = GN9	tag = OE9	tag = IV9	tag = NC9	tag = CT9
					tag = YA9	tag = NQ9	tag = HZ9	tag = YE9	tag = YR9	tag = US9	tag = IC9	tag = NR9	tag = NA9	tag = CB9	tag = TG9
					tag = TE9	tag = HK9	tag = A29	tag = LY9	tag = KZ9	tag = TX9	tag = SE9	tag = ER9	tag = KO9	tag = JM9	tag = GU9
					tag = MX9	tag = KK9	tag = ZK9	tag = SU9	tag = UZ9	tag = FI9	tag = NO9	tag = ET9	tag = TW9	tag = DR9	tag = I69
					tag = BZ9	tag = AC9	tag = GG9	tag = LA9	tag = BI9	tag = DK9	tag = WA9	tag = SP9	tag = NK9	tag = VZ9	tag = MN9
					tag = EL9	tag = MU9	tag = WF9	tag = CD9	tag = KU9	tag = SC9	tag = DE9	tag = TN9	tag = IN9	tag = VO9	tag = CK9
					tag = HD9	tag = DA9	tag = GW9	tag = BK9	tag = AL9	tag = CH9	tag = EE9	tag = BA9	tag = NE9	tag = MG9	tag = KN9
					tag = CR9	tag = PN9	tag = UM9	tag = MI9	tag = TY9	tag = ND9	tag = LT9	tag = TC9	tag = I19	tag = AN9	tag = EN9
					tag = PA9	tag = KP9	tag = TV9	tag = HL9	tag = BO9	tag = GH9	tag = LI9	tag = AB9	tag = I29	tag = ZZ9	tag = FL9
					tag = PR9	tag = SN9	tag = IG9	tag = BL9	tag = HE9	tag = LR9	tag = AS9	tag = DO9	tag = I39	tag = GB9	tag = SY9
					tag = GL9	tag = NF9	tag = KA9	tag = AF9	tag = DG9	tag = AZ9	tag = NZ9	tag = LC9	tag = I49	tag = CM9	tag = AR9
					tag = GD9	tag = GV9	tag = G29	tag = FG9	tag = EG9	tag = IR9	tag = RI9	tag = TD9	tag = I59	tag = BN9	tag = DZ9
					tag = MT9	tag = NU9	tag = B29	tag = TT9	tag = CC9	tag = KE9	tag = RM9	tag = QK9	tag = EH9		

				}
				NOT = { has_country_flag = regime_tag_flag }
			}
			set_country_flag = regime_tag_flag
		}
		any_country = {
			limit = {
				OR = {
					tag = WP8	tag = KB8	tag = YM8	tag = EK8	tag = TS8	tag = TZ8	tag = NI8	tag = CY8	tag = IV8	tag = JM8	tag = UG8
					tag = PP8	tag = BD8	tag = VI8	tag = A18	tag = MA8	tag = ZA8	tag = CA8	tag = AK8	tag = NA8	tag = DR8	tag = PG8
					tag = KY8	tag = MZ8	tag = NT8	tag = KD8	tag = DJ8	tag = SF8	tag = CL8	tag = OE8	tag = KO8	tag = VZ8	tag = TH8
					tag = HA8	tag = KT8	tag = S38	tag = IY8	tag = SG8	tag = NB8	tag = HI8	tag = NR8	tag = TW8	tag = VO8	tag = BT8
					tag = MO8	tag = NN8	tag = RL8	tag = S28	tag = GM8	tag = SH8	tag = GN8	tag = ER8	tag = NK8	tag = MG8	tag = IE8
					tag = TL8	tag = TI8	tag = NS8	tag = YK8	tag = DI8	tag = FJ8	tag = IC8	tag = ET8	tag = IN8	tag = AN8	tag = ES8
					tag = OS8	tag = SD8	tag = VC8	tag = SA8	tag = ID8	tag = TF8	tag = SE8	tag = SP8	tag = NE8	tag = ZZ8	tag = GA8
					tag = VT8	tag = MH8	tag = RB8	tag = AE8	tag = TK8	tag = US8	tag = NO8	tag = TN8	tag = I18	tag = GB8	tag = PT8
					tag = TB8	tag = WT8	tag = B18	tag = MY8	tag = TJ8	tag = TX8	tag = WA8	tag = BA8	tag = I28	tag = CM8	tag = VS8
					tag = LN8	tag = ZM8	tag = AD8	tag = IQ8	tag = YR8	tag = FI8	tag = DE8	tag = TC8	tag = I38	tag = BN8	tag = CT8
					tag = N18	tag = AW8	tag = FO8	tag = PS8	tag = KZ8	tag = DK8	tag = EE8	tag = AB8	tag = I48	tag = TG8	tag = ML8
					tag = K18	tag = CS8	tag = KL8	tag = YE8	tag = UZ8	tag = SC8	tag = LT8	tag = DO8	tag = I58	tag = GU8	tag = SI8
					tag = S18	tag = DF8	tag = EI8	tag = LY8	tag = BI8	tag = CH8	tag = LI8	tag = LC8	tag = I68	tag = BS8	tag = OR8
					tag = K28	tag = Y18	tag = HZ8	tag = SU8	tag = KU8	tag = ND8	tag = AS8	tag = TD8	tag = MN8	tag = NL8	tag = IT8
					tag = M18	tag = IB8	tag = A28	tag = LA8	tag = AL8	tag = GH8	tag = NZ8	tag = CK8	tag = SB8	tag = QC8	tag = HV8
					tag = KM8	tag = NQ8	tag = ZK8	tag = CD8	tag = TY8	tag = LR8	tag = RI8	tag = KN8	tag = MK8	tag = FR8	tag = SK8
					tag = MM8	tag = HK8	tag = GG8	tag = BK8	tag = BO8	tag = AZ8	tag = EN8	tag = YL8	tag = GK8	tag = LX8	tag = AO8
					tag = YA8	tag = KK8	tag = WF8	tag = MI8	tag = HE8	tag = IR8	tag = FL8	tag = SW8	tag = BU8	tag = BG8	tag = EQ8
					tag = TE8	tag = AC8	tag = GW8	tag = HL8	tag = DG8	tag = SY8	tag = SS8	tag = MC8	tag = RO8	tag = AT8	tag = CV8
					tag = MX8	tag = MU8	tag = UM8	tag = BL8	tag = EG8	tag = AR8	tag = RW8	tag = UR8	tag = MD8	tag = SO8	tag = PH8
					tag = BZ8	tag = DA8	tag = TV8	tag = AF8	tag = DZ8	tag = Q28	tag = BW8	tag = LM8	tag = BY8	tag = PO8	tag = DN8
					tag = EL8	tag = PN8	tag = IG8	tag = FG8	tag = EH8	tag = JP8	tag = ZB8	tag = VA8	tag = UA8	tag = CZ8	tag = RE8
					tag = HD8	tag = KP8	tag = KA8	tag = TT8	tag = SL8	tag = KS8	tag = LO8	tag = BB8	tag = KR8	tag = WL8	tag = TM8
					tag = CR8	tag = SN8	tag = G28	tag = QK8	tag = GR8	tag = TR8	tag = GY8	tag = UN8	tag = RU8	tag = HT8	tag = RN8
					tag = PA8	tag = NF8	tag = B28	tag = IK8	tag = AA8	tag = JD8	tag = SR8	tag = WI8	tag = RK8	tag = LB8	tag = YC8
					tag = PR8	tag = GV8	tag = RM8	tag = QM8	tag = MR8	tag = BH8	tag = SM8	tag = SZ8	tag = AM8	tag = ZO8	tag = GT8
					tag = GL8	tag = NU8	tag = PC8	tag = PL8	tag = KH8	tag = QT8	tag = NG8	tag = LS8	tag = GE8	tag = KI8	tag = NC8
					tag = GD8	tag = KE8	tag = RF8	tag = CP8	tag = PK8	tag = OM8	tag = HG8	tag = BF8	tag = IL8	tag = CN8	tag = CB8
					tag = MT8	tag = CC8	tag = CO8	tag = EC8	tag = GI8	tag = BR8	tag = EU8	tag = CI8	tag = AG8		

				}
				NOT = { has_country_flag = rebel_tag_flag }
			}
			set_country_flag = rebel_tag_flag
		}
		## set province territorial defense units
		any_province_region = {
			limit = { citysize = 15000 NOT = { citysize = 25000 } }
			set_variable = {
				which = territorial_defense_units_rating
				value = 1
			}
		}
		any_province_region = {
			limit = { citysize = 25000 NOT = { citysize = 50000 } }
			set_variable = {
				which = territorial_defense_units_rating
				value = 2
			}
		}
		any_province_region = {
			limit = { citysize = 50000 NOT = { citysize = 75000 } }
			set_variable = {
				which = territorial_defense_units_rating
				value = 3
			}
		}
		any_province_region = {
			limit = { citysize = 75000 NOT = { citysize = 100000 } }
			set_variable = {
				which = territorial_defense_units_rating
				value = 4
			}
		}
		any_province_region = {
			limit = { citysize = 100000 NOT = { citysize = 200000 } }
			set_variable = {
				which = territorial_defense_units_rating
				value = 5
			}
		}
		any_province_region = {
			limit = { citysize = 200000 NOT = { citysize = 400000 } }
			set_variable = {
				which = territorial_defense_units_rating
				value = 6
			}
		}
		any_province_region = {
			limit = { citysize = 400000 NOT = { citysize = 600000 } }
			set_variable = {
				which = territorial_defense_units_rating
				value = 7
			}
		}
		any_province_region = {
			limit = { citysize = 600000 NOT = { citysize = 800000 } }
			set_variable = {
				which = territorial_defense_units_rating
				value = 8
			}
		}
		any_province_region = {
			limit = { citysize = 800000 }
			set_variable = {
				which = territorial_defense_units_rating
				value = 9
			}
		}
		## non-existent 9 countries get variable
		any_country = {
			limit = {
				NOT = { exists = yes }
				has_country_flag = regime_tag_flag
			}
			set_variable = {
				which = waiting_for_core_days
				value = 1
			}
		}
		## OOB / GARRISON
		any_country = {
			limit = {
				exists = yes
				capital_scope = { region = any_province_region }
				ai = yes
			}
			country_event = 10003
		}
		## starting modifiers (TM emulators)
		any_country = {
			limit = {
				exists = yes
				has_country_flag = regime_tag_flag
			}
			add_country_modifier = {
				name = regime_tag_etm
				duration = -1
			}
		}
		any_country = {
			limit = {
				exists = yes
				has_country_flag = rebel_tag_flag
			}
			add_country_modifier = {
				name = rebel_tag_etm
				duration = -1
			}
		}
		## set starting flags for culture stabilities
		any_country = {
			limit = {
				OR = {
					primary_culture = canada_culture
					primary_culture = newfoundland_and_labrador_culture
					primary_culture = quebec_culture
					primary_culture = united_states_of_america_culture
					primary_culture = california_culture
					primary_culture = texas_culture
					primary_culture = hawaii_culture
					primary_culture = greenland_culture
					primary_culture = iceland_culture
					primary_culture = finland_culture
					primary_culture = sweden_culture
					primary_culture = norway_culture
					primary_culture = denmark_culture
					primary_culture = scotland_culture
					primary_culture = wales_culture
					primary_culture = france_culture
					primary_culture = switzerland_culture
					primary_culture = luxembourg_culture
					primary_culture = belgium_culture
					primary_culture = netherlands_culture
					primary_culture = germany_culture
					primary_culture = austria_culture
					primary_culture = slovenia_culture
					primary_culture = poland_culture
					primary_culture = estonia_culture
					primary_culture = latvia_culture
					primary_culture = lithuania_culture
					primary_culture = czech_republic_culture
					primary_culture = saudi_arabia_culture
					primary_culture = united_arab_emirates_culture
					primary_culture = korea_republic_culture
					primary_culture = china_republic_culture
					primary_culture = malaysia_culture
					primary_culture = japan_culture
					primary_culture = australia_culture
					primary_culture = new_zealand_culture
					primary_culture = mauritius_culture
					primary_culture = united_kingdom_culture
					primary_culture = wallonia_culture
					primary_culture = flanders_culture
					primary_culture = faroe_islands_culture
					primary_culture = aland_islands_culture
					primary_culture = us_outlying_islands_culture
					primary_culture = gibraltar_culture
					primary_culture = british_atlantic_islands_culture
					primary_culture = bermuda_culture
					primary_culture = pitcairn_islands_culture
					primary_culture = singapore_culture

				}
			}
			set_country_flag = very_stable_culture
		}
		any_country = {
			limit = {
				OR = {
					primary_culture = mexico_culture
					primary_culture = belize_culture
					primary_culture = el_salvador_culture
					primary_culture = honduras_culture
					primary_culture = costa_rica_culture
					primary_culture = panama_culture
					primary_culture = bahamas_culture
					primary_culture = turks_n_caicos_culture
					primary_culture = puerto_rico_culture
					primary_culture = anguilla_culture
					primary_culture = antigua_and_barbuda_culture
					primary_culture = guadeloupe_culture
					primary_culture = dominica_culture
					primary_culture = martinique_culture
					primary_culture = st._lucia_culture
					primary_culture = trinidad_and_tobago_culture
					primary_culture = curacao_culture
					primary_culture = colombia_culture
					primary_culture = ecuador_culture
					primary_culture = guyana_culture
					primary_culture = suriname_culture
					primary_culture = guiana_culture
					primary_culture = brazil_culture
					primary_culture = peru_culture
					primary_culture = chile_culture
					primary_culture = argentina_culture
					primary_culture = uruguay_culture
					primary_culture = paraguay_culture
					primary_culture = tahiti_culture
					primary_culture = cook_islands_culture
					primary_culture = samoa_culture
					primary_culture = tonga_culture
					primary_culture = kiribati_culture
					primary_culture = ireland_culture
					primary_culture = spain_culture
					primary_culture = galicia_culture
					primary_culture = portugal_culture
					primary_culture = basque_country_culture
					primary_culture = catalonia_culture
					primary_culture = malta_culture
					primary_culture = sicily_culture
					primary_culture = corsica_culture
					primary_culture = italy_culture
					primary_culture = croatia_culture
					primary_culture = montenegro_culture
					primary_culture = serbia_culture
					primary_culture = kosovo_culture
					primary_culture = macedonia_culture
					primary_culture = greece_culture
					primary_culture = bulgaria_culture
					primary_culture = romania_culture
					primary_culture = hungary_culture
					primary_culture = slovakia_culture
					primary_culture = moldova_culture
					primary_culture = belarus_culture
					primary_culture = ukraine_culture
					primary_culture = crimea_culture
					primary_culture = russia_culture
					primary_culture = turkey_culture
					primary_culture = kalmykia_culture
					primary_culture = cherkasia_culture
					primary_culture = azerbaijan_culture
					primary_culture = armenia_culture
					primary_culture = georgia_culture
					primary_culture = iran_culture
					primary_culture = jordan_culture
					primary_culture = israel_culture
					primary_culture = bahrain_culture
					primary_culture = qatar_culture
					primary_culture = oman_culture
					primary_culture = tunisia_culture
					primary_culture = morocco_culture
					primary_culture = djibouti_culture
					primary_culture = kenya_culture
					primary_culture = tanzania_culture
					primary_culture = seychelles_culture
					primary_culture = zambia_culture
					primary_culture = south_africa_pluralist_culture
					primary_culture = namibia_culture
					primary_culture = botswana_culture
					primary_culture = sao_tome_culture
					primary_culture = equatorial_guinea_culture
					primary_culture = senegal_culture
					primary_culture = gambia_culture
					primary_culture = cabo_verde_culture
					primary_culture = maldives_culture
					primary_culture = indonesia_culture
					primary_culture = bhutan_culture
					primary_culture = turkmenistan_culture
					primary_culture = tajikistan_culture
					primary_culture = kyrgyzstan_culture
					primary_culture = kazakhstan_culture
					primary_culture = uzbekistan_culture
					primary_culture = mongolia_culture
					primary_culture = thailand_culture
					primary_culture = laos_culture
					primary_culture = vietnam_culture
					primary_culture = brunei_culture
					primary_culture = philippines_culture
					primary_culture = micronesia_culture
					primary_culture = marshall_islands_culture
					primary_culture = nauru_culture
					primary_culture = solomon_islands_culture
					primary_culture = fiji_culture
					primary_culture = vanuatu_culture
					primary_culture = new_caledonia_culture
					primary_culture = reunion_culture
					primary_culture = tibet_culture
					primary_culture = kuwait_culture
					primary_culture = barbados_culture
					primary_culture = cyprus_greek_culture
					primary_culture = timor_culture
					primary_culture = albania_culture
					primary_culture = cyprus_turkish_culture
					primary_culture = abkhazia_culture
					primary_culture = south_ossetia_culture
					primary_culture = south_africa_white_culture
					primary_culture = grenada_culture
					primary_culture = cayman_islands_culture
					primary_culture = virgin_islands_culture
					primary_culture = sant_martin_culture
					primary_culture = saba_culture
					primary_culture = saint_barthelemy_culture
					primary_culture = montserrat_culture
					primary_culture = saint_vincent_culture
					primary_culture = aruba_culture
					primary_culture = bonaire_culture
					primary_culture = tokelau_culture
					primary_culture = easter_island_culture
					primary_culture = bosnia_croat_culture
					primary_culture = szekely_land_culture
					primary_culture = wallis_and_futuna_culture
					primary_culture = guam_culture
					primary_culture = karelia_culture
					primary_culture = kabylia_culture
					primary_culture = hong_kong_culture
					primary_culture = sikkim_culture
					primary_culture = pattani_culture
					primary_culture = karkalpakstan_culture
					primary_culture = norfolk_island_culture
					primary_culture = st._kitts_culture


				}
			}
			set_country_flag = somewhat_stable_culture
		}
		any_country = {
			limit = {
				OR = {
					primary_culture = yucatan_culture
					primary_culture = guatemala_culture
					primary_culture = nicaragua_culture
					primary_culture = cuba_culture
					primary_culture = jamaica_culture
					primary_culture = dominican_republic_culture
					primary_culture = venezuela_culture
					primary_culture = bolivia_culture
					primary_culture = bosnia_bosniak_culture
					primary_culture = novorossiya_culture
					primary_culture = chechnya_culture
					primary_culture = dagestan_culture
					primary_culture = syria_alawite_culture
					primary_culture = egypt_culture
					primary_culture = algeria_culture
					primary_culture = western_sahara_culture
					primary_culture = eritrea_culture
					primary_culture = ethiopia_culture
					primary_culture = somaliland_culture
					primary_culture = uganda_culture
					primary_culture = madagascar_culture
					primary_culture = malawi_culture
					primary_culture = swaziland_culture
					primary_culture = lesotho_culture
					primary_culture = angola_culture
					primary_culture = rep._of_the_congo_culture
					primary_culture = gabon_culture
					primary_culture = cameroon_culture
					primary_culture = biafra_culture
					primary_culture = nigeria_culture
					primary_culture = niger_culture
					primary_culture = benin_culture
					primary_culture = togo_culture
					primary_culture = azawad_culture
					primary_culture = guinea_culture
					primary_culture = guinea-bissau_culture
					primary_culture = mauritania_culture
					primary_culture = sri_lanka_culture
					primary_culture = india_culture
					primary_culture = nepal_culture
					primary_culture = kashmir_culture
					primary_culture = pakistan_culture
					primary_culture = east_turkestan_culture
					primary_culture = china_people's_republic_culture
					primary_culture = chin_culture
					primary_culture = arakan_culture
					primary_culture = karen_culture
					primary_culture = shan_culture
					primary_culture = kachin_culture
					primary_culture = mon_culture
					primary_culture = cambodia_culture
					primary_culture = kurdistan_culture
					primary_culture = assam_culture
					primary_culture = myanmar_culture
					primary_culture = libya_republic_culture
					primary_culture = syria_republic_culture
					primary_culture = bosnia_serbian_culture
					primary_culture = transnistria_culture
					primary_culture = syrian_kurdistan_culture
					primary_culture = tamil_eelam_culture
					primary_culture = punjab_culture
					primary_culture = meghalaya_culture
					primary_culture = nagaland_culture
					primary_culture = manipur_culture
					primary_culture = tripura_culture
					primary_culture = mizoram_culture
					primary_culture = palau_culture
					primary_culture = chiapas_culture
					primary_culture = san_andres_culture
					primary_culture = gagauzia_culture
					primary_culture = ilirida_culture
					primary_culture = ingushetia_culture
					primary_culture = rif_culture
					primary_culture = annobon_culture
					primary_culture = nagorno-karabakh_culture
					primary_culture = aceh_culture
					primary_culture = south_moluccas_culture
					primary_culture = moroland_culture
					primary_culture = niue_culture

				}
			}
			set_country_flag = unstable_culture
		}
		any_country = {
			limit = {
				OR = {
					primary_culture = haiti_culture
					primary_culture = iraq_sunni_culture
					primary_culture = lebanon_culture
					primary_culture = palestine_culture
					primary_culture = yemen_culture
					primary_culture = libya_jamahiriya_culture
					primary_culture = sudan_culture
					primary_culture = south_sudan_culture
					primary_culture = somalia_culture
					primary_culture = rwanda_culture
					primary_culture = burundi_culture
					primary_culture = mozambique_culture
					primary_culture = zimbabwe_culture
					primary_culture = dr_congo_culture
					primary_culture = central_african_republic_culture
					primary_culture = chad_culture
					primary_culture = ghana_culture
					primary_culture = ivory_coast_culture
					primary_culture = burkina_faso_culture
					primary_culture = mali_culture
					primary_culture = liberia_culture
					primary_culture = sierra-leone_culture
					primary_culture = bangladesh_culture
					primary_culture = balochistan_culture
					primary_culture = afghanistan_emirate_culture
					primary_culture = korea_people's_republic_culture
					primary_culture = west_papua_culture
					primary_culture = papua_new_guinea_culture
					primary_culture = arabistan_culture
					primary_culture = afghanistan_republic_culture
					primary_culture = iraq_shia_culture
					primary_culture = ghat_culture
					primary_culture = iraqi_kurdistan_culture
					primary_culture = iranian_kurdistan_culture
					primary_culture = comoros_culture
					primary_culture = cabinda_culture
					primary_culture = ambazonia_culture
					primary_culture = katanga_culture
					primary_culture = tigray_culture
					primary_culture = sidama_culture
					primary_culture = amhara_culture
					primary_culture = western_togoland_culture
					primary_culture = zambesia_culture
					primary_culture = arewa_culture
					primary_culture = casamance_culture
					primary_culture = darfur_culture
					primary_culture = south_yemen_culture
					primary_culture = sistan-baluchistan_culture
					primary_culture = bougainville_culture


				}
			}
			set_country_flag = very_unstable_culture
		}
		## all ~~human~~ countries get no diplomats immediately
		any_country = {
			limit = {
				#ai = no
				exists = yes
			}
			diplomats = -5
		}
		## static OOB
		any_country = {
			limit = {
				tag = CO8
			}
			infantry = 833
			infantry = 833
			infantry = 833
			infantry = 833
			infantry = 833
			infantry = 833
			infantry = 832
			infantry = 832
			infantry = 832
			infantry = 832
			infantry = 832
		}
		any_country = {
			limit = {
				tag = CO8
				ai = yes
			}
			infantry = 833
			infantry = 833
			infantry = 833
			cavalry = 833
			cavalry = 833
			infantry = 832
			cavalry = 832
			infantry = 832
			infantry = 832
		}
		any_country = {
			limit = {
				tag = AF9
				ai = yes
			}
			infantry = 2754
			infantry = 2754
			infantry = 2754
			infantry = 451
			infantry = 451
			infantry = 451
			infantry = 447
			infantry = 447
		}
		any_country = {
			limit = {
				tag = KS9
				#ai = yes
			}
			infantry = 1766
			infantry = 1766
			infantry = 1766
			cavalry = 1766
		}
		any_country = {
			limit = {
				tag = KS9
				ai = yes
			}
			infantry = 1766
			cavalry = 1766
			cavalry = 1766
			artillery = 1766
		}
		any_country = {
			limit = {
				tag = N19
				ai = yes
			}
			infantry = 580
			infantry = 580
		}
		any_country = {
			limit = {
				tag = K29
				ai = yes
			}
			infantry = 582
			infantry = 582
		}
		any_country = {
			limit = {
				tag = S19
				ai = yes
			}
			infantry = 583
			infantry = 583
		}
		any_country = {
			limit = {
				tag = K19
				ai = yes
			}
			infantry = 585
			infantry = 585
		}
		any_country = {
			limit = {
				tag = ER9
				ai = yes
			}
			infantry = 1227
			infantry = 1227
			infantry = 1227
			infantry = 1227
			cavalry = 1227
			cavalry = 1227
		}
		## setting ideologies according to complex system
		any_province_region = {
			limit = {
				NOT = { has_province_flag = temp_startup_flag_very_stable }
				OR = {
					culture = canada_culture
					culture = newfoundland_and_labrador_culture
					culture = quebec_culture
					culture = united_states_of_america_culture
					culture = california_culture
					culture = texas_culture
					culture = hawaii_culture
					culture = greenland_culture
					culture = iceland_culture
					culture = finland_culture
					culture = sweden_culture
					culture = norway_culture
					culture = denmark_culture
					culture = scotland_culture
					culture = wales_culture
					culture = france_culture
					culture = switzerland_culture
					culture = luxembourg_culture
					culture = belgium_culture
					culture = netherlands_culture
					culture = germany_culture
					culture = austria_culture
					culture = slovenia_culture
					culture = poland_culture
					culture = estonia_culture
					culture = latvia_culture
					culture = lithuania_culture
					culture = czech_republic_culture
					culture = saudi_arabia_culture
					culture = united_arab_emirates_culture
					culture = korea_republic_culture
					culture = china_republic_culture
					culture = malaysia_culture
					culture = japan_culture
					culture = australia_culture
					culture = new_zealand_culture
					culture = mauritius_culture
					culture = united_kingdom_culture
					culture = wallonia_culture
					culture = flanders_culture
					culture = faroe_islands_culture
					culture = aland_islands_culture
					culture = us_outlying_islands_culture
					culture = gibraltar_culture
					culture = british_atlantic_islands_culture
					culture = bermuda_culture
					culture = pitcairn_islands_culture
					culture = singapore_culture


				}
			}
			set_province_flag = temp_startup_flag_very_stable
		}
		any_province_region = {
			limit = {
				NOT = { has_province_flag = temp_startup_somewhat_stable }
				OR = {
					culture = mexico_culture
					culture = belize_culture
					culture = el_salvador_culture
					culture = honduras_culture
					culture = costa_rica_culture
					culture = panama_culture
					culture = bahamas_culture
					culture = turks_n_caicos_culture
					culture = puerto_rico_culture
					culture = anguilla_culture
					culture = antigua_and_barbuda_culture
					culture = guadeloupe_culture
					culture = dominica_culture
					culture = martinique_culture
					culture = st._lucia_culture
					culture = trinidad_and_tobago_culture
					culture = curacao_culture
					culture = colombia_culture
					culture = ecuador_culture
					culture = guyana_culture
					culture = suriname_culture
					culture = guiana_culture
					culture = brazil_culture
					culture = peru_culture
					culture = chile_culture
					culture = argentina_culture
					culture = uruguay_culture
					culture = paraguay_culture
					culture = tahiti_culture
					culture = cook_islands_culture
					culture = samoa_culture
					culture = tonga_culture
					culture = kiribati_culture
					culture = ireland_culture
					culture = spain_culture
					culture = galicia_culture
					culture = portugal_culture
					culture = basque_country_culture
					culture = catalonia_culture
					culture = malta_culture
					culture = sicily_culture
					culture = corsica_culture
					culture = italy_culture
					culture = croatia_culture
					culture = montenegro_culture
					culture = serbia_culture
					culture = kosovo_culture
					culture = macedonia_culture
					culture = greece_culture
					culture = bulgaria_culture
					culture = romania_culture
					culture = hungary_culture
					culture = slovakia_culture
					culture = moldova_culture
					culture = belarus_culture
					culture = ukraine_culture
					culture = crimea_culture
					culture = russia_culture
					culture = turkey_culture
					culture = kalmykia_culture
					culture = cherkasia_culture
					culture = azerbaijan_culture
					culture = armenia_culture
					culture = georgia_culture
					culture = iran_culture
					culture = jordan_culture
					culture = israel_culture
					culture = bahrain_culture
					culture = qatar_culture
					culture = oman_culture
					culture = tunisia_culture
					culture = morocco_culture
					culture = djibouti_culture
					culture = kenya_culture
					culture = tanzania_culture
					culture = seychelles_culture
					culture = zambia_culture
					culture = south_africa_pluralist_culture
					culture = namibia_culture
					culture = botswana_culture
					culture = sao_tome_culture
					culture = equatorial_guinea_culture
					culture = senegal_culture
					culture = gambia_culture
					culture = cabo_verde_culture
					culture = maldives_culture
					culture = indonesia_culture
					culture = bhutan_culture
					culture = turkmenistan_culture
					culture = tajikistan_culture
					culture = kyrgyzstan_culture
					culture = kazakhstan_culture
					culture = uzbekistan_culture
					culture = mongolia_culture
					culture = thailand_culture
					culture = laos_culture
					culture = vietnam_culture
					culture = brunei_culture
					culture = philippines_culture
					culture = micronesia_culture
					culture = marshall_islands_culture
					culture = nauru_culture
					culture = solomon_islands_culture
					culture = fiji_culture
					culture = vanuatu_culture
					culture = new_caledonia_culture
					culture = reunion_culture
					culture = tibet_culture
					culture = kuwait_culture
					culture = barbados_culture
					culture = cyprus_greek_culture
					culture = timor_culture
					culture = albania_culture
					culture = cyprus_turkish_culture
					culture = abkhazia_culture
					culture = south_ossetia_culture
					culture = south_africa_white_culture
					culture = grenada_culture
					culture = cayman_islands_culture
					culture = virgin_islands_culture
					culture = sant_martin_culture
					culture = saba_culture
					culture = saint_barthelemy_culture
					culture = montserrat_culture
					culture = saint_vincent_culture
					culture = aruba_culture
					culture = bonaire_culture
					culture = tokelau_culture
					culture = easter_island_culture
					culture = bosnia_croat_culture
					culture = szekely_land_culture
					culture = wallis_and_futuna_culture
					culture = guam_culture
					culture = karelia_culture
					culture = kabylia_culture
					culture = hong_kong_culture
					culture = sikkim_culture
					culture = pattani_culture
					culture = karkalpakstan_culture
					culture = norfolk_island_culture
					culture = st._kitts_culture

				}
			}
			set_province_flag = temp_startup_flag_somewhat_stable
		}
		any_province_region = {
			limit = {
				NOT = { has_province_flag = temp_startup_flag_unstable }
				OR = {
					culture = yucatan_culture
					culture = guatemala_culture
					culture = nicaragua_culture
					culture = cuba_culture
					culture = jamaica_culture
					culture = dominican_republic_culture
					culture = venezuela_culture
					culture = bolivia_culture
					culture = bosnia_bosniak_culture
					culture = novorossiya_culture
					culture = chechnya_culture
					culture = dagestan_culture
					culture = syria_alawite_culture
					culture = egypt_culture
					culture = algeria_culture
					culture = western_sahara_culture
					culture = eritrea_culture
					culture = ethiopia_culture
					culture = somaliland_culture
					culture = uganda_culture
					culture = madagascar_culture
					culture = malawi_culture
					culture = swaziland_culture
					culture = lesotho_culture
					culture = angola_culture
					culture = rep._of_the_congo_culture
					culture = gabon_culture
					culture = cameroon_culture
					culture = biafra_culture
					culture = nigeria_culture
					culture = niger_culture
					culture = benin_culture
					culture = togo_culture
					culture = azawad_culture
					culture = guinea_culture
					culture = guinea-bissau_culture
					culture = mauritania_culture
					culture = sri_lanka_culture
					culture = india_culture
					culture = nepal_culture
					culture = kashmir_culture
					culture = pakistan_culture
					culture = east_turkestan_culture
					culture = china_people's_republic_culture
					culture = chin_culture
					culture = arakan_culture
					culture = karen_culture
					culture = shan_culture
					culture = kachin_culture
					culture = mon_culture
					culture = cambodia_culture
					culture = kurdistan_culture
					culture = assam_culture
					culture = myanmar_culture
					culture = libya_republic_culture
					culture = syria_republic_culture
					culture = bosnia_serbian_culture
					culture = transnistria_culture
					culture = syrian_kurdistan_culture
					culture = tamil_eelam_culture
					culture = punjab_culture
					culture = meghalaya_culture
					culture = nagaland_culture
					culture = manipur_culture
					culture = tripura_culture
					culture = mizoram_culture
					culture = palau_culture
					culture = chiapas_culture
					culture = san_andres_culture
					culture = gagauzia_culture
					culture = ilirida_culture
					culture = ingushetia_culture
					culture = rif_culture
					culture = annobon_culture
					culture = nagorno-karabakh_culture
					culture = aceh_culture
					culture = south_moluccas_culture
					culture = moroland_culture
					culture = niue_culture

				}
			}
			set_province_flag = temp_startup_flag_unstable
		}
		any_province_region = {
			limit = {
				NOT = { has_province_flag = temp_startup_flag_very_unstable }
				OR = {
					culture = haiti_culture
					culture = iraq_sunni_culture
					culture = lebanon_culture
					culture = palestine_culture
					culture = yemen_culture
					culture = libya_jamahiriya_culture
					culture = sudan_culture
					culture = south_sudan_culture
					culture = somalia_culture
					culture = rwanda_culture
					culture = burundi_culture
					culture = mozambique_culture
					culture = zimbabwe_culture
					culture = dr_congo_culture
					culture = central_african_republic_culture
					culture = chad_culture
					culture = ghana_culture
					culture = ivory_coast_culture
					culture = burkina_faso_culture
					culture = mali_culture
					culture = liberia_culture
					culture = sierra-leone_culture
					culture = bangladesh_culture
					culture = balochistan_culture
					culture = afghanistan_emirate_culture
					culture = korea_people's_republic_culture
					culture = west_papua_culture
					culture = papua_new_guinea_culture
					culture = arabistan_culture
					culture = afghanistan_republic_culture
					culture = iraq_shia_culture
					culture = ghat_culture
					culture = iraqi_kurdistan_culture
					culture = iranian_kurdistan_culture
					culture = comoros_culture
					culture = cabinda_culture
					culture = ambazonia_culture
					culture = katanga_culture
					culture = tigray_culture
					culture = sidama_culture
					culture = amhara_culture
					culture = western_togoland_culture
					culture = zambesia_culture
					culture = arewa_culture
					culture = casamance_culture
					culture = darfur_culture
					culture = south_yemen_culture
					culture = sistan-baluchistan_culture
					culture = bougainville_culture


				}
			}
			set_province_flag = temp_startup_flag_very_unstable
		}
		#
		####################################################
		#### VERY UNSTABLE
		####################################################
		any_province_region = {
			limit = {
				has_province_flag = temp_startup_flag_very_unstable
				religion = protestant
			}
			random_list = {
				### MAINSTREAM 20
				10 = {
					religion = liberal_r
				}
				10 = {
					religion = conservative_r
				}
				### LEFT WING 10
				10 = {
					religion = socialist_r
				}
				### RIGHT WING 60
				60 = {
					religion = reactionary_r
				}
				
			}
		}

		####################################################
		#### UNSTABLE
		####################################################
		any_province_region = {
			limit = {
				has_province_flag = temp_startup_flag_unstable
				religion = protestant
			}
			random_list = {
				### MAINSTREAM 30
				15 = {
					religion = liberal_r
				}
				15 = {
					religion = conservative_r
				}
				### LEFT WING 20
				20 = {
					religion = socialist_r
				}
				### RIGHT WING 50
				50 = {
					religion = reactionary_r
				}
				
			}
		}
		####################################################
		#### SOMEWHAT STABLE
		####################################################
		any_province_region = {
			limit = {
				has_province_flag = temp_startup_flag_somewhat_stable
				religion = protestant
			}
			random_list = {
				### MAINSTREAM 40
				20 = {
					religion = liberal_r
				}
				20 = {
					religion = conservative_r
				}
				### LEFT WING 30
				30 = {
					religion = socialist_r
				}
				### RIGHT WING 30
				30 = {
					religion = reactionary_r
				}
				
			}
		}
		####################################################
		#### VERY STABLE
		####################################################
		any_province_region = {
			limit = {
				has_province_flag = temp_startup_flag_very_stable
				religion = protestant
			}
			random_list = {
				### MAINSTREAM 50
				25 = {
					religion = liberal_r
				}
				25 = {
					religion = conservative_r
				}
				### LEFT WING 30
				30 = {
					religion = socialist_r
				}
				### RIGHT WING 20
				20 = {
					religion = reactionary_r
				}
				
			}
		}
		####### set stabilities
		# failed states etc
		LA8 = {
			stability = 6
			stability = -5
		}
		LA9 = {
			stability = 6
			stability = -5
		}
		ET9 = {
			stability = 6
			stability = -3
		}
		ER9 = {
			stability = 6
			stability = -3
		}
		CD8 = {
			stability = 6
			stability = -4
		}
		CD9 = {
			stability = 6
			stability = -4
		}
		KI8 = {
			stability = 6
			stability = -4
		}
		KI9 = {
			stability = 6
			stability = -5
		}
		SU9 = {
			stability = 6
			stability = -4
		}
		IV9 = {
			stability = 6
			stability = -4
		}
		LO9 = {
			stability = 6
			stability = -5
		}
		LO8 = {
			stability = 6
			stability = -3
		}
		GU9 = {
			stability = 6
			stability = -3
		}
		GU8 = {
			stability = 6
			stability = -3
		}
		LR9 = {
			stability = 6
			stability = -4
		}
		LR8 = {
			stability = 6
			stability = -4
		}
		CN9 = {
			stability = 6
			stability = -4
		}
		## randomize advisors (WIP)
		any_country = {
			limit = {
				exists = yes
				capital_scope = {
					region = any_province_region
				}
			}
			random_list = {
				3 = { create_advisor = philosopher }
				3 = { create_advisor = natural_scientist }
				3 = { create_advisor = artist }
				3 = { create_advisor = statesman }
				3 = { create_advisor = treasurer }
				3 = { create_advisor = naval_reformer }
				3 = { create_advisor = army_reformer }
				3 = { create_advisor = trader }
				3 = { create_advisor = theologian }
				3 = { create_advisor = spymaster }
				3 = { create_advisor = colonial_governor }
				3 = { create_advisor = diplomat }
				3 = { create_advisor = sheriff }
				3 = { create_advisor = high_judge }
				3 = { create_advisor = alderman }
				3 = { create_advisor = colonel }
				3 = { create_advisor = collector }
				3 = { create_advisor = master_of_mint }
				3 = { create_advisor = banker }
				3 = { create_advisor = grand_admiral }
				3 = { create_advisor = naval_organiser }
				3 = { create_advisor = navigator }
				3 = { create_advisor = rear_admiral }
				3 = { create_advisor = army_organiser }
				3 = { create_advisor = commandant }
				3 = { create_advisor = fortification_expert }
				22 = { create_advisor = ambassador }
			}
		}
		######### Clear these flags now
		any_province_region = {
			limit = {
				OR = {
					has_province_flag = temp_startup_flag_muslim
					has_province_flag = temp_startup_flag_very_stable
					has_province_flag = temp_startup_flag_somewhat_stable
					has_province_flag = temp_startup_flag_unstable
					has_province_flag = temp_startup_flag_very_unstable
				}
			}
			clr_province_flag = temp_startup_flag_muslim
			clr_province_flag = temp_startup_flag_very_stable
			clr_province_flag = temp_startup_flag_somewhat_stable
			clr_province_flag = temp_startup_flag_unstable
			clr_province_flag = temp_startup_flag_very_unstable
		}
				
				
			
	}
}