#Country Name: Please see filename.

graphical_culture = chinesegfx

color = { 193 41 35 }




historical_ideas = {
	national_conscripts
	glorious_arms
	military_drill 
	battlefield_commisions
	shrewd_commerce_practise
	grand_army
	espionage
	engineer_corps
	national_trade_policy
	cabinet
	bureaucracy
	merchant_adventures
}

historical_units = {
	east_asian_spearmen
	eastern_bow
	asian_arquebusier
	asian_charge_cavalry
	asian_mass_infantry
	asian_musketeer
	reformed_asian_musketeer
	reformed_asian_cavalry
}

monarch_names = {
	"Samu Sena Daya #0" = 20
	"Lamakamadinga #0" = 20
	"Bhumadarada #0" = 20
	"Yugandhara #0" = 20
	"Gunakama #0" = 20
	"Lohajaya #0" = 20
	"Kaya Buwanabana #0" = 20
	"Kama Kirti #0" = 20
	"Sai Tiakap'at #0" = 20
	"T'ene Kham #0" = 20
	"La Sene T'ai #0" = 20
	"Som-P'ou #0" = 20
	"Visoun #0" = 20
	"P'ot'israt #0" = 20
	"Sett'at'irat #0" = 20
	"Sene Soulint'a #0" = 20
	"Maha Oupahat #0" = 20
	"Sene Soulint'a #0" = 20
	"Nakhone Noi #0" = 20
	"Nokeo Koumane #0" = 20
	"T'ammikarat #0" = 20
	"Oupagnouvarat #0" = 20
	"Mone Keo #0" = 20
	"Oupagnouvarat #0" = 20
	"Tone Kham #0" = 20
	"Visai #0" = 20
	"Souligna Vongsa #0" = 20
}

leader_names = {
	Aut
	Bee
	Joy
	Minh
	Noy
	Noi
	Eng
	Dee
	Sae
	Sai
}

ship_names = {
	Samsenthai 
	Phommathat
	Khamtum 
	Yukhon 
	"Meun Sai" 
	"Fa Ngum" "Fa Khai"
	"Khong Kham" "Kham Keut"
	"Lan Kham Deng"
	"Vutha Singsavaddy"
}
